&GLOBAL
  PRINT_LEVEL LOW
  PROJECT a7319e0a76ed1648e34e4f7edc120ab43f7ea668
  RUN_TYPE ENERGY_FORCE
&END GLOBAL
&FORCE_EVAL
  METHOD Quickstep
  STRESS_TENSOR ANALYTICAL
  &PRINT
    &FORCES ON
    &END FORCES
  &END PRINT
  &SUBSYS
    &CELL
            A    10.169985771     0.000000000     0.000000000
      B     0.097291976    10.133112907     0.000000000
      C     0.040452477     0.043702453     9.905062675

    &END CELL
    &COORD
            O    6.554431438     1.457801580     7.337460041
      H    6.344024658     1.946480393     8.236706734
      H    5.656815529     1.278405190     6.935899258
      O    5.175105572    10.061876297     0.075375557
      H    4.507586479     0.447839111     9.333755493
      H    5.534652233     9.385575294     9.399513245
      O    1.753054619     5.592043877     4.037015915
      H    2.345920086     6.289181232     3.616652966
      H    0.870370686     5.679257870     3.563227892
      O    7.199456692     1.941622376     1.461504102
      H    7.429342747     1.081015110     1.864349484
      H    7.702908516     2.679678679     1.930643320
      O    2.578752518     5.018343449     0.514840722
      H    3.162022114     5.591125488     1.107249737
      H    1.731259465     5.526681423     0.448487699
      O    7.927871227     5.132894993     9.867831230
      H    8.451018333     5.269818306     9.027234077
      H    7.491309643     4.252638340     9.747754097
      O    1.739122152     3.010914326     9.032298088
      H    1.659960985     3.861572981     9.554394722
      H    0.876142144     2.559967279     9.154283524
      O    8.174609184     3.763394833     2.833416462
      H    8.570597649     3.275249958     3.600135088
      H    7.381258965     4.231155396     3.205420971
      O    4.426392078     0.499835223     5.840849400
      H    4.013590813     1.366084099     5.613776207
      H    4.950691223     0.282842636     5.042002678
      O    9.838462830     1.088232517     0.929617703
      H    9.460277557     0.353357077     0.341374397
      H    9.327136993     1.875116706     0.663140297
      O    1.135191560     5.326539040     6.650019169
      H    1.848039627     5.855032444     7.122386456
      H    1.350216866     5.361271381     5.663788319
      O   10.194707870     6.023543835     0.290119469
      H    9.966331482     5.965703964     1.236209035
      H    9.230836868     5.982604980     0.204985619
      O    8.601800919     6.123220921     7.302837372
      H    9.521805763     5.768123627     7.139134884
      H    8.785103798     7.021564484     7.657820702
      O    9.300389290     0.625878632     3.416341066
      H    9.846457481     1.234980583     2.855540752
      H    9.047590256     1.103957534     4.241439342
      O    0.768089831     2.318670511     6.722661972
      H    1.127657056     3.155947447     6.390354633
      H    1.186900258     2.625119448     7.551249504
      O    3.530935049     3.054056644     5.205787182
      H    3.369777918     2.913121700     4.228427887
      H    3.205202818     3.979057074     5.369803429
      O    9.370921135     5.912291050     3.088098049
      H    8.534712791     6.433471203     2.953457594
      H    9.052627563     4.972384930     2.928212404
      O    5.266087532     4.516362667     3.978505373
      H    5.665831566     5.090358257     4.720160484
      H    4.712550163     3.957900763     4.593956470
      O    8.252824783     2.372596502     5.408070087
      H    9.173338890     2.580982208     5.699013233
      H    7.785602093     2.045181513     6.245175362
      O    6.134235859     2.839130163     9.418551445
      H    6.406137466     2.273880243     0.366871446
      H    5.178642750     2.648825645     9.316191673
      O    3.947972536     1.422218800     8.210049629
      H    3.497907639     1.052998304     7.415581703
      H    3.234592199     1.890371323     8.698063850
      O    8.879089355     9.722703934     7.086759567
      H    9.768278122    10.147150993     7.100998402
      H    8.151403427     0.360297203     7.008163452
      O    3.558595657     5.567838669     8.034369469
      H    4.009981155     4.930079460     7.449335098
      H    3.153456211     5.078528404     8.813586235
      O    7.990598679     7.895692348     2.123000383
      H    7.643828869     8.630033493     1.563568234
      H    8.526889801     8.336850166     2.823293209
      O    5.775535583     6.728058338     9.482232094
      H    5.467438221     6.744762897     0.518419266
      H    6.699094296     6.397232056     9.645089149
      O    5.206121445     8.898127556     2.459475279
      H    6.026313782     8.365620613     2.596476793
      H    5.253905296     9.394768715     1.562198162
      O    6.033269882     5.991494179     5.779050827
      H    6.282040119     5.652808189     6.662191868
      H    5.759825230     6.929178238     5.853788376
      O    1.830302954     2.579340219     2.806843519
      H    1.789993405     3.342022657     3.421166182
      H    1.548957825     2.984891891     1.955899358
      O    3.811192274     6.298047066     2.554628611
      H    4.482769966     5.630229950     2.963499069
      H    4.152041912     7.232618332     2.418880224
      O    9.223339081     9.158129692     9.603666306
      H    9.046247482     9.155323982     8.612820625
      H    9.896526337     8.481116295     9.841064453
      UNIT ANGSTROM
    &END COORD
    &KIND H
      POTENTIAL GTH-PBE
      ELEMENT H
      BASIS_SET DZVP-GTH-PBE
    &END KIND
    &KIND O
      POTENTIAL GTH-PBE
      ELEMENT O
      BASIS_SET DZVP-GTH-PBE
    &END KIND
  &END SUBSYS
  &DFT
    POTENTIAL_FILE_NAME GTH_POTENTIALS
    MULTIPLICITY 0
    CHARGE 0
    BASIS_SET_FILE_NAME BASIS_SET
    BASIS_SET_FILE_NAME BASIS_MOLOPT
    BASIS_SET_FILE_NAME BASIS_MOLOPT_UCL
    &MGRID
      REL_CUTOFF 60
      CUTOFF 800
    &END MGRID
    &QS
      EPS_DEFAULT 1e-12
    &END QS
    &XC
      &XC_FUNCTIONAL PBE
      &END XC_FUNCTIONAL
      &XC_GRID
        XC_DERIV PW
      &END XC_GRID
    &END XC
    &SCF
      EPS_SCF 1e-05
      MAX_SCF 20
      SCF_GUESS ATOMIC
      &OUTER_SCF
        EPS_SCF 1e-05
        MAX_SCF 100
      &END OUTER_SCF
      &OT
        PRECONDITIONER FULL_SINGLE_INVERSE
        MINIMIZER DIIS
      &END OT
    &END SCF
  &END DFT
&END FORCE_EVAL