 DBCSR| CPU Multiplication driver                                           XSMM
 DBCSR| Multrec recursion limit                                              512
 DBCSR| Multiplication stack size                                           1000
 DBCSR| Maximum elements for images                                    UNLIMITED
 DBCSR| Multiplicative factor virtual images                                   1
 DBCSR| Use multiplication densification                                       T
 DBCSR| Multiplication size stacks                                             3
 DBCSR| Use memory pool for CPU allocation                                     F
 DBCSR| Number of 3D layers                                               SINGLE
 DBCSR| Use MPI memory allocation                                              F
 DBCSR| Use RMA algorithm                                                      F
 DBCSR| Use Communication thread                                               T
 DBCSR| Communication thread load                                             87
 DBCSR| MPI: My node id                                                        0
 DBCSR| MPI: Number of nodes                                                  64
 DBCSR| OMP: Current number of threads                                         1
 DBCSR| OMP: Max number of threads                                             1
 DBCSR| Split modifier for TAS multiplication algorithm                  1.0E+00


  **** **** ******  **  PROGRAM STARTED AT               2023-12-07 11:19:41.589
 ***** ** ***  *** **   PROGRAM STARTED ON                 b5202.betzy.sigma2.no
 **    ****   ******    PROGRAM STARTED BY                              sigbjobo
 ***** **    ** ** **   PROGRAM PROCESS ID                                108117
  **** **  *******  **  PROGRAM STARTED IN /cluster/work/users/sigbjobo/ice_mode
                                           l/cp2k/iter_3/calculator/liquid/77123
                                           5

 CP2K| version string:                                       CP2K version 2022.1
 CP2K| source code revision number:                                  git:2caeb6f
 CP2K| cp2kflags: omp libint fftw3 libxc parallel mpi3 scalapack xsmm plumed2 li
 CP2K|            bvori libbqb
 CP2K| is freely available from                            https://www.cp2k.org/
 CP2K| Program compiled at                          Tue Oct 31 08:14:18 CET 2023
 CP2K| Program compiled on                               login-2.betzy.sigma2.no
 CP2K| Program compiled for                                    Linux-x86-64-foss
 CP2K| Data directory path         /cluster/software/CP2K/2022.1-foss-2022a/data
 CP2K| Input file name              c7374dd154336d08bb71864d411f646c5f12cfe5.inp

 GLOBAL| Force Environment number                                              1
 GLOBAL| Basis set file name                                           BASIS_SET
 GLOBAL| Potential file name                                      GTH_POTENTIALS
 GLOBAL| MM Potential file name                                     MM_POTENTIAL
 GLOBAL| Coordinate file name                                      __STD_INPUT__
 GLOBAL| Method name                                                        CP2K
 GLOBAL| Project name                   c7374dd154336d08bb71864d411f646c5f12cfe5
 GLOBAL| Run type                                                   ENERGY_FORCE
 GLOBAL| FFT library                                                       FFTW3
 GLOBAL| Diagonalization library                                       ScaLAPACK
 GLOBAL| Orthonormality check for eigenvectors                          DISABLED
 GLOBAL| Matrix multiplication library                                 ScaLAPACK
 GLOBAL| All-to-all communication in single precision                          F
 GLOBAL| FFTs using library dependent lengths                                  F
 GLOBAL| Grid backend                                                       AUTO
 GLOBAL| Global print level                                                  LOW
 GLOBAL| MPI I/O enabled                                                       T
 GLOBAL| Total number of message passing processes                            64
 GLOBAL| Number of threads for this process                                    1
 GLOBAL| This output is from process                                           0
 GLOBAL| Stack size for threads created by OpenMP (OMP_STACKSIZE)        default
 GLOBAL| CPU model name                          AMD EPYC 7742 64-Core Processor
 GLOBAL| CPUID                                                              1002

 MEMORY| system memory details [Kb]
 MEMORY|                        rank 0           min           max       average
 MEMORY| MemTotal           1056169884    1056169884    1056169884    1056169884
 MEMORY| MemFree             748434912     748434912     748434912     748434912
 MEMORY| Buffers                 34700         34700         34700         34700
 MEMORY| Cached                1952720       1952720       1952720       1952720
 MEMORY| Slab                  1039696       1039648       1039696       1039693
 MEMORY| SReclaimable           215356        215356        215356        215356
 MEMORY| MemLikelyFree       750637688     750637688     750637688     750637688


 GENERATE|  Preliminary Number of Bonds generated:                             0
 GENERATE|  Achieved consistency in connectivity generation.

 *******************************************************************************
 *******************************************************************************
 **                                                                           **
 **     #####                         ##              ##                      **
 **    ##   ##            ##          ##              ##                      **
 **   ##     ##                       ##            ######                    **
 **   ##     ##  ##   ##  ##   #####  ##  ##   ####   ##    #####    #####    **
 **   ##     ##  ##   ##  ##  ##      ## ##   ##      ##   ##   ##  ##   ##   **
 **   ##  ## ##  ##   ##  ##  ##      ####     ###    ##   ######   ######    **
 **    ##  ###   ##   ##  ##  ##      ## ##      ##   ##   ##       ##        **
 **     #######   #####   ##   #####  ##  ##  ####    ##    #####   ##        **
 **           ##                                                    ##        **
 **                                                                           **
 **                                                ... make the atoms dance   **
 **                                                                           **
 **            Copyright (C) by CP2K developers group (2000-2022)             **
 **                      J. Chem. Phys. 152, 194103 (2020)                    **
 **                                                                           **
 *******************************************************************************


 TOTAL NUMBERS AND MAXIMUM NUMBERS

  Total number of            - Atomic kinds:                                   2
                             - Atoms:                                         90
                             - Shell sets:                                   180
                             - Shells:                                       330
                             - Primitive Cartesian functions:                450
                             - Cartesian basis functions:                    720
                             - Spherical basis functions:                    690

  Maximum angular momentum of- Orbital basis functions:                        2
                             - Local part of the GTH pseudopotential:          2
                             - Non-local part of the GTH pseudopotential:      0


 SCF PARAMETERS         Density guess:                                    ATOMIC
                        --------------------------------------------------------
                        max_scf:                                              20
                        max_scf_history:                                       0
                        max_diis:                                              4
                        --------------------------------------------------------
                        eps_scf:                                        1.00E-05
                        eps_scf_history:                                0.00E+00
                        eps_diis:                                       1.00E-01
                        eps_eigval:                                     1.00E-05
                        --------------------------------------------------------
                        level_shift [a.u.]:                             0.000000
                        --------------------------------------------------------
                        Outer loop SCF in use 
                        No variables optimised in outer loop
                        eps_scf                                         1.00E-05
                        max_scf                                              100
                        No outer loop optimization
                        step_size                                       5.00E-01

 Number of electrons:                                                        240
 Number of occupied orbitals:                                                120
 Number of molecular orbitals:                                               120

 Number of orbital functions:                                                690
 Number of independent orbital functions:                                    690

 Extrapolation method: initial_guess


 SCF WAVEFUNCTION OPTIMIZATION

  ----------------------------------- OT ---------------------------------------
  Minimizer      : DIIS                : direct inversion
                                         in the iterative subspace
                                         using   7 DIIS vectors
                                         safer DIIS on
  Preconditioner : FULL_SINGLE_INVERSE : inversion of 
                                         H + eS - 2*(Sc)(c^T*H*c+const)(Sc)^T
  Precond_solver : DEFAULT
  stepsize       :    0.08000000                  energy_gap     :    0.08000000
  eps_taylor     :   0.10000E-15                  max_taylor     :             4
  ----------------------------------- OT ---------------------------------------

  Step     Update method      Time    Convergence         Total energy    Change
  ------------------------------------------------------------------------------
     1 OT DIIS     0.80E-01    0.5     0.04316663      -497.2428063988 -4.97E+02
     2 OT DIIS     0.80E-01    0.6     0.03118239      -505.4546249530 -8.21E+00
     3 OT DIIS     0.80E-01    0.6     0.02318200      -509.6173251461 -4.16E+00
     4 OT DIIS     0.80E-01    0.6     0.01414737      -513.5749013903 -3.96E+00
     5 OT DIIS     0.80E-01    0.6     0.00898710      -514.9241454959 -1.35E+00
     6 OT DIIS     0.80E-01    0.6     0.00604885      -515.6156809517 -6.92E-01
     7 OT DIIS     0.80E-01    1.9     0.00536986      -515.8899188435 -2.74E-01
     8 OT DIIS     0.80E-01    1.0     0.00469533      -516.0906641420 -2.01E-01
     9 OT DIIS     0.80E-01    0.6     0.00349362      -516.2837983915 -1.93E-01
    10 OT DIIS     0.80E-01    0.6     0.00232659      -516.3981111113 -1.14E-01
    11 OT DIIS     0.80E-01    0.6     0.00176729      -516.4500614779 -5.20E-02
    12 OT DIIS     0.80E-01    0.6     0.00118777      -516.4936284444 -4.36E-02
    13 OT DIIS     0.80E-01    0.6     0.00105009      -516.5060496208 -1.24E-02
    14 OT DIIS     0.80E-01    0.6     0.00059766      -516.5223010540 -1.63E-02
    15 OT DIIS     0.80E-01    0.6     0.00046208      -516.5281662500 -5.87E-03
    16 OT DIIS     0.80E-01    0.5     0.00031748      -516.5318097400 -3.64E-03
    17 OT DIIS     0.80E-01    0.6     0.00023340      -516.5336450895 -1.84E-03
    18 OT DIIS     0.80E-01    0.6     0.00018083      -516.5347391615 -1.09E-03
    19 OT DIIS     0.80E-01    0.6     0.00014178      -516.5354726083 -7.33E-04
    20 OT DIIS     0.80E-01    0.6     0.00011086      -516.5359736523 -5.01E-04

  Leaving inner SCF loop after reaching    20 steps.


  Electronic density on regular grids:       -239.9999999984        0.0000000016
  Core density on regular grids:              239.9999999999       -0.0000000001
  Total charge density on r-space grids:        0.0000000015
  Total charge density g-space grids:           0.0000000015

  Overlap energy of the core charge distribution:               0.00000058810921
  Self energy of the core charge distribution:              -1330.41464990212944
  Core Hamiltonian energy:                                    388.10197021815435
  Hartree energy:                                             553.18939741433269
  Exchange-correlation energy:                               -127.41269197074413

  Total energy:                                              -516.53597365227733

  outer SCF iter =    1 RMS gradient =   0.11E-03 energy =       -516.5359736523

  ----------------------------------- OT ---------------------------------------
  Minimizer      : DIIS                : direct inversion
                                         in the iterative subspace
                                         using   7 DIIS vectors
                                         safer DIIS on
  Preconditioner : FULL_SINGLE_INVERSE : inversion of 
                                         H + eS - 2*(Sc)(c^T*H*c+const)(Sc)^T
  Precond_solver : DEFAULT
  stepsize       :    0.08000000                  energy_gap     :    0.08000000
  eps_taylor     :   0.10000E-15                  max_taylor     :             4
  ----------------------------------- OT ---------------------------------------

  Step     Update method      Time    Convergence         Total energy    Change
  ------------------------------------------------------------------------------
     1 OT DIIS     0.80E-01    1.2     0.00028025      -516.5362519703 -2.78E-04
     2 OT DIIS     0.80E-01    0.6     0.00017943      -516.5366731667 -4.21E-04
     3 OT DIIS     0.80E-01    0.5     0.00005651      -516.5369703456 -2.97E-04
     4 OT DIIS     0.80E-01    0.6     0.00002393      -516.5369981648 -2.78E-05
     5 OT DIIS     0.80E-01    7.0     0.00001087      -516.5370028938 -4.73E-06
     6 OT DIIS     0.80E-01    1.1     0.00000501      -516.5370039307 -1.04E-06

  *** SCF run converged in     6 steps ***


  Electronic density on regular grids:       -239.9999999984        0.0000000016
  Core density on regular grids:              239.9999999999       -0.0000000001
  Total charge density on r-space grids:        0.0000000015
  Total charge density g-space grids:           0.0000000015

  Overlap energy of the core charge distribution:               0.00000058810921
  Self energy of the core charge distribution:              -1330.41464990212944
  Core Hamiltonian energy:                                    388.09985915830214
  Hartree energy:                                             553.19068236255328
  Exchange-correlation energy:                               -127.41289613757095

  Total energy:                                              -516.53700393073564

  outer SCF iter =    2 RMS gradient =   0.50E-05 energy =       -516.5370039307
  outer SCF loop converged in   2 iterations or   26 steps


 ENERGY| Total FORCE_EVAL ( QS ) energy [a.u.]:             -516.537004158607033

 ATOMIC FORCES in [a.u.]

 # Atom   Kind   Element          X              Y              Z
      1      1      O           0.00663711    -0.00716732     0.00220239
      2      2      H          -0.00061321     0.00296802    -0.00833881
      3      2      H          -0.01391362     0.00117602    -0.01493418
      4      1      O           0.00198950    -0.00490568     0.00392773
      5      2      H           0.00625746     0.00361351     0.00577513
      6      2      H          -0.00089969    -0.00856419    -0.01048391
      7      1      O          -0.00319655    -0.00385435     0.00434942
      8      2      H           0.00123291     0.00931857     0.00141339
      9      2      H          -0.00172142     0.00578483     0.00181461
     10      1      O           0.00036121    -0.00544868    -0.00774057
     11      2      H           0.00013900    -0.00162751    -0.00729104
     12      2      H          -0.00011029    -0.00448999    -0.00318514
     13      1      O           0.00041640    -0.00045821     0.00866452
     14      2      H          -0.00074073     0.00768159    -0.00266801
     15      2      H           0.00991947    -0.00418997    -0.01239573
     16      1      O           0.01183124     0.00351729     0.00708443
     17      2      H          -0.00002764     0.00500873    -0.00835552
     18      2      H          -0.01863156    -0.00343583     0.00005672
     19      1      O           0.00535256    -0.00382681    -0.00381290
     20      2      H           0.00360865    -0.00130908    -0.00469750
     21      2      H          -0.00358926     0.00661204     0.00194911
     22      1      O          -0.00862811    -0.00959318     0.00477161
     23      2      H           0.00315200     0.00339236     0.01053793
     24      2      H          -0.00966367     0.00155039     0.01387679
     25      1      O           0.00848405    -0.00468628     0.00762183
     26      2      H           0.00426709    -0.00900303     0.00601190
     27      2      H          -0.00720277     0.00962284    -0.00713520
     28      1      O           0.00496265     0.00555022    -0.00024881
     29      2      H           0.00435338     0.01029883     0.01077472
     30      2      H          -0.01173707    -0.00459083     0.00256238
     31      1      O          -0.00780291     0.00579078     0.01278376
     32      2      H           0.01322964     0.00102557     0.00068361
     33      2      H           0.00947108     0.00218639    -0.00735243
     34      1      O           0.00672534    -0.00132382     0.00102264
     35      2      H          -0.00903956    -0.00547248     0.00394328
     36      2      H          -0.00473815    -0.00216868     0.00224530
     37      1      O           0.00482883    -0.00317746    -0.00009097
     38      2      H          -0.00316168     0.00371803    -0.00802730
     39      2      H          -0.00057880     0.00489851    -0.00112902
     40      1      O          -0.00109877    -0.00321250     0.00483337
     41      2      H           0.00449567    -0.00019338    -0.01520563
     42      2      H           0.00769717    -0.00341110     0.00669876
     43      1      O          -0.00483165     0.00127496    -0.00174670
     44      2      H          -0.00605460     0.00456091     0.01050965
     45      2      H           0.00309578    -0.00488222     0.00065018
     46      1      O           0.00349217    -0.00486211    -0.00256794
     47      2      H          -0.00755881    -0.00706698     0.00034964
     48      2      H           0.00569219    -0.00292469     0.00483269
     49      1      O           0.00009520     0.00444501    -0.00522697
     50      2      H          -0.00782412     0.00143871     0.01155401
     51      2      H           0.00943828     0.01564553    -0.00274786
     52      1      O          -0.00103871     0.00308154    -0.00571566
     53      2      H           0.01623702     0.00493950    -0.00861226
     54      2      H          -0.00244615    -0.01286672     0.00017677
     55      1      O          -0.01575137    -0.00093113    -0.00794681
     56      2      H          -0.00298632    -0.00503539     0.00710814
     57      2      H           0.00089818     0.01104951    -0.00282815
     58      1      O           0.00905452     0.01078584     0.00387221
     59      2      H           0.00786920     0.00041129     0.01564745
     60      2      H          -0.00552127    -0.00207216    -0.00782696
     61      1      O           0.00098066     0.00650878    -0.00346167
     62      2      H          -0.00519363    -0.00125202    -0.00218701
     63      2      H          -0.01143915    -0.00184693    -0.00044126
     64      1      O          -0.00355327    -0.00022417    -0.00847292
     65      2      H           0.00735686    -0.00670659     0.00173581
     66      2      H          -0.00348730     0.00629502    -0.00239945
     67      1      O          -0.00711854     0.00043605    -0.00228121
     68      2      H           0.00429087     0.00375762    -0.01009931
     69      2      H          -0.00168061    -0.00230141     0.00675207
     70      1      O           0.00172090    -0.00683265    -0.00570131
     71      2      H          -0.00309618     0.00412300    -0.01005798
     72      2      H          -0.00422511    -0.00444340     0.00970346
     73      1      O           0.00923393     0.00440095     0.00279512
     74      2      H          -0.00153084     0.00103093     0.01026713
     75      2      H          -0.00764793    -0.00270197    -0.00395228
     76      1      O           0.00403374     0.00337567    -0.00179067
     77      2      H           0.00523356    -0.00230420     0.00672828
     78      2      H          -0.00443114     0.00362303     0.00563422
     79      1      O          -0.00225424     0.00768191     0.00304970
     80      2      H           0.01408803    -0.00181918    -0.00522606
     81      2      H          -0.01047971     0.00006884     0.00938501
     82      1      O           0.00052689     0.00133819    -0.00374711
     83      2      H           0.00077568    -0.00201391    -0.00385585
     84      2      H          -0.00290195    -0.00500811    -0.00389777
     85      1      O           0.00243145    -0.00604636    -0.00321163
     86      2      H           0.00760070     0.00036384     0.01222376
     87      2      H          -0.00599410    -0.00414603    -0.00778244
     88      1      O          -0.00828072    -0.00264264     0.00588770
     89      2      H           0.00938048     0.00461530    -0.00439465
     90      2      H           0.00100724    -0.01160552    -0.00294019
 SUM OF ATOMIC FORCES          -0.00047694     0.00031957     0.00025556     0.00062842

 -------------------------------------------------------------------------------
 -                                                                             -
 -                                DBCSR STATISTICS                             -
 -                                                                             -
 -------------------------------------------------------------------------------
 COUNTER                                    TOTAL       BLAS       SMM       ACC
 flops     5 x    24 x    24              1382400       0.0%    100.0%      0.0%
 flops    13 x    24 x    24              1797120       0.0%    100.0%      0.0%
 flops     5 x    32 x    24              2764800       0.0%    100.0%      0.0%
 flops     5 x    24 x    32              2764800       0.0%    100.0%      0.0%
 flops    13 x    32 x    24              3594240       0.0%    100.0%      0.0%
 flops    13 x    24 x    32              3594240       0.0%    100.0%      0.0%
 flops    24 x    24 x    24              5695488       0.0%    100.0%      0.0%
 flops     5 x    32 x    32             14745600       0.0%    100.0%      0.0%
 flops    13 x    32 x    32             19169280       0.0%    100.0%      0.0%
 flops    24 x    24 x    84             20127744       0.0%    100.0%      0.0%
 flops    24 x    24 x    32             22781952       0.0%    100.0%      0.0%
 flops    24 x    32 x    24             22781952       0.0%    100.0%      0.0%
 flops    32 x    24 x    24             22781952       0.0%    100.0%      0.0%
 flops    84 x    24 x    24             24385536       0.0%    100.0%      0.0%
 flops    84 x    24 x    84             37933056       0.0%    100.0%      0.0%
 flops    24 x    24 x    87             62539776       0.0%    100.0%      0.0%
 flops     5 x     5 x    24             65880000       0.0%    100.0%      0.0%
 flops    87 x    24 x    24             75769344       0.0%    100.0%      0.0%
 flops    32 x    24 x    84             79478784       0.0%    100.0%      0.0%
 flops    24 x    32 x    84             79994880       0.0%    100.0%      0.0%
 flops    13 x     5 x    24             84240000       0.0%    100.0%      0.0%
 flops     5 x    13 x    24             84240000       0.0%    100.0%      0.0%
 flops    32 x    32 x    24             91127808       0.0%    100.0%      0.0%
 flops    24 x    32 x    32             91127808       0.0%    100.0%      0.0%
 flops    32 x    24 x    32             91127808       0.0%    100.0%      0.0%
 flops    84 x    24 x    32             97542144       0.0%    100.0%      0.0%
 flops    84 x    32 x    24             97542144       0.0%    100.0%      0.0%
 flops    13 x    13 x    24            113162400       0.0%    100.0%      0.0%
 flops    87 x    24 x    84            117863424       0.0%    100.0%      0.0%
 flops    84 x    24 x    87            117863424       0.0%    100.0%      0.0%
 flops    84 x    32 x    84            151732224       0.0%    100.0%      0.0%
 flops    32 x    24 x    87            246951936       0.0%    100.0%      0.0%
 flops    24 x    32 x    87            248555520       0.0%    100.0%      0.0%
 flops     5 x     5 x    32            263520000       0.0%    100.0%      0.0%
 flops     5 x    24 x     5            272160000       0.0%    100.0%      0.0%
 flops    87 x    32 x    24            303077376       0.0%    100.0%      0.0%
 flops    87 x    24 x    32            303077376       0.0%    100.0%      0.0%
 flops    32 x    32 x    84            319979520       0.0%    100.0%      0.0%
 flops    13 x     5 x    32            336960000       0.0%    100.0%      0.0%
 flops     5 x    13 x    32            336960000       0.0%    100.0%      0.0%
 flops    13 x    24 x     5            353808000       0.0%    100.0%      0.0%
 flops     5 x    24 x    13            353808000       0.0%    100.0%      0.0%
 flops    32 x    32 x    32            364511232       0.0%    100.0%      0.0%
 flops    87 x    24 x    87            366218496       0.0%    100.0%      0.0%
 flops    84 x    32 x    32            390168576       0.0%    100.0%      0.0%
 flops    13 x    13 x    32            452649600       0.0%    100.0%      0.0%
 flops    13 x    24 x    13            459950400       0.0%    100.0%      0.0%
 flops    87 x    32 x    84            471453696       0.0%    100.0%      0.0%
 flops    84 x    32 x    87            471453696       0.0%    100.0%      0.0%
 flops    32 x    32 x    87            994222080       0.0%    100.0%      0.0%
 flops     5 x    32 x     5           1088640000       0.0%    100.0%      0.0%
 flops    87 x    32 x    32           1212309504       0.0%    100.0%      0.0%
 flops    13 x    32 x     5           1415232000       0.0%    100.0%      0.0%
 flops     5 x    32 x    13           1415232000       0.0%    100.0%      0.0%
 flops    87 x    32 x    87           1464873984       0.0%    100.0%      0.0%
 flops    13 x    32 x    13           1839801600       0.0%    100.0%      0.0%
 flops inhomo. stacks                           0       0.0%      0.0%      0.0%
 flops total                        17.453107E+09       0.0%    100.0%      0.0%
 flops max/rank                    663.398592E+06       0.0%    100.0%      0.0%
 matmuls inhomo. stacks                         0       0.0%      0.0%      0.0%
 matmuls total                            2585896       0.0%    100.0%      0.0%
 number of processed stacks                145568       0.0%    100.0%      0.0%
 average stack size                                     0.0      17.8       0.0
 marketing flops                    19.227642E+09
 -------------------------------------------------------------------------------
 # multiplications                            563
 max memory usage/rank             259.207168E+06
 # max total images/rank                        1
 # max 3D layers                                1
 # MPI messages exchanged                  504448
 MPI messages size (bytes):
  total size                         5.129465E+09
  min size                           0.000000E+00
  max size                          60.552000E+03
  average size                      10.168472E+03
 MPI breakdown and total messages size (bytes):
             size <=      128              293608                        0
       128 < size <=     8192               60536                435864576
      8192 < size <=    32768              109536               2267395200
     32768 < size <=   131072               40768               2426205600
    131072 < size <=  4194304                   0                        0
   4194304 < size <= 16777216                   0                        0
  16777216 < size                               0                        0
 -------------------------------------------------------------------------------
 -                                                                             -
 -                      DBCSR MESSAGE PASSING PERFORMANCE                      -
 -                                                                             -
 -------------------------------------------------------------------------------
 ROUTINE             CALLS      AVE VOLUME [Bytes]
 MP_Bcast               57                     12.
 MP_Allreduce         3128                     13.
 MP_Alltoall          2034                   7684.
 MP_ISend            18008                   6624.
 MP_IRecv            18008                   6141.
 -------------------------------------------------------------------------------

 -------------------------------------------------------------------------------
 -                                                                             -
 -                                DBM STATISTICS                               -
 -                                                                             -
 -------------------------------------------------------------------------------
    M  x    N  x    K                                          COUNT     PERCENT
 -------------------------------------------------------------------------------

 -------------------------------------------------------------------------------
 -                                                                             -
 -                                GRID STATISTICS                              -
 -                                                                             -
 -------------------------------------------------------------------------------
 LP    KERNEL             BACKEND                              COUNT     PERCENT
 1     collocate general  REF                                 705834      21.07%
 1     integrate general  REF                                 679692      20.29%
 0     collocate general  REF                                 523134      15.61%
 0     integrate general  REF                                 498212      14.87%
 2     collocate general  REF                                 360234      10.75%
 2     integrate general  REF                                 346892      10.35%
 3     integrate general  REF                                 101778       3.04%
 3     collocate general  REF                                  79812       2.38%
 4     integrate general  REF                                  32226       0.96%
 5     integrate general  REF                                  13342       0.40%
 4     collocate general  REF                                   6318       0.19%
 6     integrate general  REF                                   2956       0.09%
 7     integrate general  REF                                    234       0.01%
 -------------------------------------------------------------------------------

 MEMORY| Estimated peak process memory [MiB]                                 248

 -------------------------------------------------------------------------------
 -                                                                             -
 -                         MESSAGE PASSING PERFORMANCE                         -
 -                                                                             -
 -------------------------------------------------------------------------------

 ROUTINE             CALLS      AVE VOLUME [Bytes]
 MP_Group                4
 MP_Bcast             2104                 278684.
 MP_Allreduce         5872                    331.
 MP_Sync                44
 MP_Alltoall           637                1683666.
 MP_ISendRecv        10206                  70240.
 MP_Wait             11662
 MP_comm_split          20
 MP_ISend             1232                 353941.
 MP_IRecv             1232                 353941.
 MP_Recv                14                  82800.
 -------------------------------------------------------------------------------


 -------------------------------------------------------------------------------
 -                                                                             -
 -                           R E F E R E N C E S                               -
 -                                                                             -
 -------------------------------------------------------------------------------
 
 CP2K version 2022.1, the CP2K developers group (2022).
 CP2K is freely available from https://www.cp2k.org/ .

 Kuehne,Thomas D.; Iannuzzi,Marcella; Del Ben,Mauro;
 Rybkin,Vladimir V.; Seewald,Patrick; Stein,Frederick; Laino,Teodoro;
 Khaliullin,Rustam Z.; Schuett,Ole; Schiffmann,Florian; Golze,Dorothea;
 Wilhelm,Jan; Chulkov,Sergey; Bani-Hashemian,Mohammad Hossein;
 Weber,Valery; Borstnik,Urban; Taillefumier,Mathieu;
 Jakobovits,Alice Shoshana; Lazzaro,Alfio; Pabst,Hans; Mueller,Tiziano;
 Schade,Robert; Guidon,Manuel; Andermatt,Samuel; Holmberg,Nico;
 Schenter,Gregory K.; Hehn,Anna; Bussy,Augustin; Belleflamme,Fabian;
 Tabacchi,Gloria; Gloess,Andreas; Lass,Michael; Bethune,Iain;
 Mundy,Christopher J.; Plessl,Christian; Watkins,Matt;
 VandeVondele,Joost; Krack,Matthias; Hutter,Juerg. 
 The Journal of Chemical Physics, 152 (19), (2020). 
 CP2K: An electronic structure and molecular dynamics software package -
 Quickstep: Efficient and accurate electronic structure calculations.
 https://doi.org/10.1063/5.0007045

 Schuett, Ole; Messmer, Peter; Hutter, Juerg; VandeVondele, Joost. 
 Electronic Structure Calculations on Graphics Processing Units, John
 Wiley & Sons, Ltd, 173-190 (2016). 
 GPU-Accelerated Sparse Matrix-Matrix Multiplication for
 Linear Scaling Density Functional Theory.
 https://doi.org/10.1002/9781118670712.ch8

 Heinecke, A; Henry, G; Hutchinson, M; Pabst, H. 
 Proceedings of Intl. Supercomputing Conference, 981-991 (2016). 
 LIBXSMM: Accelerating Small Matrix Multiplications
 by Runtime Code Generation.
 https://doi.org/10.1109/SC.2016.83

 Borstnik, U; VandeVondele, J; Weber, V; Hutter, J. 
 PARALLEL COMPUTING, 40 (5-6), 47-58 (2014). 
 Sparse matrix multiplication: The distributed block-compressed sparse
 row library.
 https://doi.org/10.1016/j.parco.2014.03.012

 Hutter, J; Iannuzzi, M; Schiffmann, F; VandeVondele, J. 
 WIREs Comput Mol Sci., 4 (1), 15-25 (2014). 
 CP2K: atomistic simulations of condensed matter systems.
 https://doi.org/10.1002/wcms.1159

 VandeVondele, J; Hutter, J. 
 JOURNAL OF CHEMICAL PHYSICS, 127 (11), 114105 (2007). 
 Gaussian basis sets for accurate calculations on molecular systems in
 gas and condensed phases.
 https://doi.org/10.1063/1.2770708

 Krack, M. 
 THEORETICAL CHEMISTRY ACCOUNTS, 114 (1-3), 145-152 (2005). 
 Pseudopotentials for H to Kr optimized for gradient-corrected
 exchange-correlation functionals.
 https://doi.org/10.1007/s00214-005-0655-y

 VandeVondele, J; Krack, M; Mohamed, F; Parrinello, M; Chassaing, T;
 Hutter, J. COMPUTER PHYSICS COMMUNICATIONS, 167 (2), 103-128 (2005). 
 QUICKSTEP: Fast and accurate density functional calculations using a
 mixed Gaussian and plane waves approach.
 https://doi.org/10.1016/j.cpc.2004.12.014

 Frigo, M; Johnson, SG. 
 PROCEEDINGS OF THE IEEE, 93 (2), 216-231 (2005). 
 The design and implementation of FFTW3.
 https://doi.org/10.1109/JPROC.2004.840301

 VandeVondele, J; Hutter, J. 
 JOURNAL OF CHEMICAL PHYSICS, 118 (10), 4365-4369 (2003). 
 An efficient orbital transformation method for electronic structure
 calculations.
 https://doi.org/10.1063/1.1543154

 Hartwigsen, C; Goedecker, S; Hutter, J. 
 PHYSICAL REVIEW B, 58 (7), 3641-3662 (1998). 
 Relativistic separable dual-space Gaussian pseudopotentials from H to Rn.
 https://doi.org/10.1103/PhysRevB.58.3641

 Lippert, G; Hutter, J; Parrinello, M. 
 MOLECULAR PHYSICS, 92 (3), 477-487 (1997). 
 A hybrid Gaussian and plane wave density functional scheme.
 https://doi.org/10.1080/002689797170220

 Perdew, JP; Burke, K; Ernzerhof, M. 
 PHYSICAL REVIEW LETTERS, 77 (18), 3865-3868 (1996). 
 Generalized gradient approximation made simple.
 https://doi.org/10.1103/PhysRevLett.77.3865

 Goedecker, S; Teter, M; Hutter, J. 
 PHYSICAL REVIEW B, 54 (3), 1703-1710 (1996). 
 Separable dual-space Gaussian pseudopotentials.
 https://doi.org/10.1103/PhysRevB.54.1703


 -------------------------------------------------------------------------------
 -                                                                             -
 -                                T I M I N G                                  -
 -                                                                             -
 -------------------------------------------------------------------------------
 SUBROUTINE                       CALLS  ASD         SELF TIME        TOTAL TIME
                                MAXIMUM       AVERAGE  MAXIMUM  AVERAGE  MAXIMUM
 CP2K                                 1  1.0    0.082    0.092   25.021   25.025
 qs_forces                            1  2.0    0.005    0.006   24.806   24.807
 qs_energies                          1  3.0    0.007    0.008   24.268   24.268
 scf_env_do_scf                       1  4.0    0.003    0.003   23.858   23.859
 scf_env_do_scf_inner_loop           26  5.0    0.031    0.035   22.874   22.904
 rebuild_ks_matrix                   27  6.9    0.001    0.002   16.922   16.924
 qs_ks_build_kohn_sham_matrix        27  7.9    0.101    0.110   16.920   16.923
 qs_ks_update_qs_env                 28  6.0    0.007    0.007   16.472   16.474
 pw_transfer                        514 11.1    0.152    0.310   10.283   10.711
 fft_wrap_pw1pw2                    460 12.2    0.171    0.189   10.089   10.512
 qs_vxc_create                       27  8.9    0.016    0.019    9.305    9.387
 xc_vxc_pw_create                    27  9.9    0.127    0.161    9.289    9.371
 fft_wrap_pw1pw2_400                298 13.6    0.547    0.586    8.833    9.226
 fft3d_ps                           460 14.2    2.512    2.849    8.661    9.179
 xc_pw_derive                       162 11.9    0.016    0.029    5.857    6.751
 xc_pw_divergence                    27 10.9    0.008    0.041    6.205    6.588
 sum_up_and_integrate                27  8.9    0.044    0.057    6.383    6.434
 integrate_v_rspace                  27  9.9    0.054    0.060    6.339    6.391
 mp_alltoall_z22v                   460 16.2    4.707    5.533    4.707    5.533
 qs_rho_update_rho_low               27  6.0    0.004    0.005    4.698    4.699
 calculate_rho_elec                  27  7.0    0.022    0.028    4.694    4.694
 potential_pw2rs                     27 10.9    0.141    0.166    4.606    4.612
 rs_pw_transfer                     218 10.4    0.031    0.038    4.307    4.559
 yz_to_x                            163 15.4    0.130    0.213    2.825    3.689
 xc_rho_set_and_dset_create          27 10.9    0.069    0.078    2.755    3.208
 density_rs2pw                       27  8.0    0.019    0.022    2.667    2.935
 x_to_yz                            189 15.5    0.172    0.213    2.149    2.539
 qs_scf_new_mos                      26  6.0    0.004    0.005    2.529    2.531
 qs_scf_loop_do_ot                   26  7.0    0.009    0.010    2.525    2.527
 ot_scf_mini                         26  8.0    0.012    0.013    2.486    2.487
 grid_collocate_task_list            27  8.0    1.949    2.197    1.949    2.197
 grid_integrate_task_list            27 10.9    1.562    1.721    1.562    1.721
 dbcsr_multiply_generic             563 11.0    0.145    0.155    1.503    1.568
 xc_functional_eval                  27 11.9    0.003    0.004    1.101    1.436
 pbe_lda_eval                        27 12.9    1.098    1.432    1.098    1.432
 mp_waitall_1                     55470 14.6    1.250    1.388    1.250    1.388
 rs_pw_transfer_RS2PW_400            28  9.9    0.449    0.644    1.076    1.340
 qs_ot_get_p                         28  8.9    0.006    0.007    1.319    1.321
 rs_pw_transfer_PW2RS_400            28 12.7    0.738    0.758    1.203    1.227
 mp_waitany                        1232 12.3    0.784    1.150    0.784    1.150
 rs_pw_transfer_PW2RS_140            27 12.9    0.281    0.323    1.080    1.112
 ot_mini                             26  9.0    0.013    0.014    1.046    1.048
 init_scf_loop                        2  5.0    0.004    0.005    0.957    0.958
 qs_ot_p2m_diag                      20 10.0    0.007    0.009    0.876    0.878
 mp_rank_compare                    460 15.2    0.720    0.835    0.720    0.835
 qs_ot_get_derivative                26 10.0    0.002    0.002    0.832    0.834
 cp_dbcsr_syevd                      20 11.0    0.027    0.027    0.717    0.718
 fft_wrap_pw1pw2_140                 54 12.4    0.049    0.059    0.539    0.630
 fft_wrap_pw1pw2_50                  54 12.4    0.053    0.054    0.510    0.517
 -------------------------------------------------------------------------------

 The number of warnings for this run is : 0
 
 -------------------------------------------------------------------------------
  **** **** ******  **  PROGRAM ENDED AT                 2023-12-07 11:20:12.509
 ***** ** ***  *** **   PROGRAM RAN ON                     b5202.betzy.sigma2.no
 **    ****   ******    PROGRAM RAN BY                                  sigbjobo
 ***** **    ** ** **   PROGRAM PROCESS ID                                108117
  **** **  *******  **  PROGRAM STOPPED IN /cluster/work/users/sigbjobo/ice_mode
                                           l/cp2k/iter_3/calculator/liquid/77123
                                           5
